{
  "project_info": {
    "project_number": "803373632511",
    "firebase_url": "https://outfitter-62da0.firebaseio.com",
    "project_id": "outfitter-62da0",
    "storage_bucket": "outfitter-62da0.appspot.com"
  },
  "client": [
    {
      "client_info": {
        "mobilesdk_app_id": "1:803373632511:android:57dd6a7c76a69fe4",
        "android_client_info": {
          "package_name": "com.silensoft.outfitter"
        }
      },
      "oauth_client": [
        {
          "client_id": "803373632511-oir73uui8o9gh25723lpim0stpa5b6qv.apps.googleusercontent.com",
          "client_type": 1,
          "android_info": {
            "package_name": "com.silensoft.outfitter",
            "certificate_hash": "9790d053144dbda0708fbc33b0b74eb3105e26b4"
          }
        },
        {
          "client_id": "803373632511-jdoooa1h13f1gut4jsinq7gmek4fhs1u.apps.googleusercontent.com",
          "client_type": 3
        }
      ],
      "api_key": [
        {
          "current_key": "AIzaSyBCxC1d5grJ_ZlRDxr6JFywskb-9mEY51Y"
        }
      ],
      "services": {
        "analytics_service": {
          "status": 1
        },
        "appinvite_service": {
          "status": 2,
          "other_platform_oauth_client": [
            {
              "client_id": "803373632511-jdoooa1h13f1gut4jsinq7gmek4fhs1u.apps.googleusercontent.com",
              "client_type": 3
            }
          ]
        },
        "ads_service": {
          "status": 2
        }
      }
    }
  ],
  "configuration_version": "1"
}